{
    "_id": "580dfe098ddae225fd47adcd",
	"id":"580dfe098ddae225fd47a"
    "index": 3,
    "guid": "a8280e48-80f6-48ee-ade2-05f55e1ec5eb",
    "isActive": true,
    "balance": "$3,681.74",
    "picture": "http://placehold.it/32x32",
    "age": 31,
    "eyeColor": "brown",
    "name": "Jeannette Butler",
    "gender": "female",
    "company": "FIBRODYNE",
    "email": "jeannettebutler@fibrodyne.com",
    "phone": "+1 (984) 484-2184",
	"phone_1": "+1 (984) 484-2184",
    "address": "745 Keen Court, Sidman, Arkansas, 4474",
    "about": "Laboris veniam nulla adipisicing sit consequat ut voluptate ut sint minim culpa. Enim commodo fugiat ullamco nulla anim sit Lorem. Consectetur incididunt sit nostrud anim. Pariatur amet aute proident duis fugiat excepteur minim enim eiusmod ullamco pariatur pariatur. Duis anim dolor sit Lorem excepteur eiusmod amet fugiat esse ad Lorem officia. Id aute voluptate cupidatat consequat culpa sint commodo adipisicing.\r\n",
    "registered": "2014-02-01T03:44:47 -03:00",
    "latitude": 47.051423,
    "longitude": 128.946528,
    "tags": [
      "nulla",
      "qui",
      "id",
      "id_5",
      "consectetur",
      "cillum",
      "deserunt",
      "excepteur"
    ],
    "friends": [
      {
        "id": 0,
        "name": "Celia Guerra"
      },
      {
        "id": 1,
        "name": "Sharp Adams"
      },
      {
        "id": 2,
        "name": "Rachel Hancock"
      }
    ],
    "greeting": "Hello, Jeannette Butler! You have 9 unread messages.",
    "favoriteFruit": "banana"
  }