{
    "_id": "580dfe093ad416921db71308",
    "index": 11,
    "guid": "77dc6dcb-b761-4884-8fb2-0ca9349c834f",
    "isActive": true,
    "balance": "$2,092.06",
    "picture": "http://placehold.it/32x32",
    "age": 30,
    "eyeColor": "green",
    "name": "Foreman Jacobson",
    "gender": "male",
    "company": "OVATION",
    "email": "foremanjacobson@ovation.com",
    "phone": "+1 (948) 438-3178",
    "address": "734 Henderson Walk, Bourg, Georgia, 2854",
    "about": "Amet laboris laborum nostrud Lorem tempor ea. Nulla nisi laboris labore Lorem ut ex aute fugiat nostrud enim mollit occaecat aute. Cupidatat qui cillum Lorem nulla consectetur sunt duis ullamco. Minim eiusmod magna fugiat aliquip pariatur velit voluptate pariatur veniam. Quis fugiat cillum duis anim ut sit magna dolore ad est culpa excepteur deserunt. Deserunt ut ipsum nisi consequat do mollit do eu quis Lorem eu nulla commodo aliqua.\r\n",
    "registered": "2016-01-19T07:03:47 -03:00",
    "latitude": -3.358957,
    "longitude": -20.208678,
    "tags": [
      "duis",
      "laboris",
      "reprehenderit",
      "aliquip",
      "cupidatat",
      "dolor",
      "deserunt"
    ],
    "friends": [
      {
        "id": 0,
        "name": "Alberta Owen"
      },
      {
        "id": 1,
        "name": "Christy Gibbs"
      },
      {
        "id": 2,
        "name": "Gentry Watkins"
      }
    ],
    "greeting": "Hello, Foreman Jacobson! You have 10 unread messages.",
    "favoriteFruit": "strawberry"
  }